{
    "nearby": {
        "radius": 1
    },
    "tables": [{
        "name": "types",
        "prefix": "t_",
        "fields": ["id", "title"],
        "type": "multiple"
    }, {
        "name": "services",
        "prefix": "s_",
        "fields": ["id", "title"],
        "type": "multiple"
    }, {
        "name": "facilities",
        "prefix": "f_",
        "fields": ["id", "title"],
        "type": "multiple"
    }, {
        "name": "themeshotels",
        "prefix": "th_",
        "fields": ["id", "title"],
        "type": "multiple"
    }, {
        "name": "rooms",
        "prefix": "r_",
        "fields": ["id", "title"],
        "type": "multiple"
    }, {
        "name": "roomsfacilities",
        "prefix": "rf_",
        "fields": ["id", "title"],
        "type": "multiple"
    }, {
        "name": "hotel",
        "prefix": "stars_",
        "fields": ["stars"],
        "type": "multiple"
    }],
    "sql": {
        "geo_relations": {
            "fields": { },
            "joins": {
                "geo_region": {
                    "sql": " INNER JOIN geo_region ON geo_region.id = geo_relations.regionid ",
                    "name": "geo_region",
                    "joinType": "INNER JOIN",
                    "idSrc": "geo_region.id",
                    "idRel": "geo_relations.itemid"
                },
                "geo_country": {
                    "sql": " INNER JOIN geo_country ON geo_country.id = geo_relations.countryid ",
                    "name": "geo_country",
                    "joinType": "INNER JOIN",
                    "idSrc": "geo_country.id",
                    "idRel": "geo_relations.hotelid"
                },
                "geo_cityr": {
                    "sql": " INNER JOIN geo_cityr ON geo_cityr.id = geo_relations.cityid ",
                    "name": "geo_cityr",
                    "joinType": "INNER JOIN",
                    "idSrc": "geo_cityr.id",
                    "idRel": "geo_relations.cityid"
                },
                "hotel": {
                    "sql": " INNER JOIN hotel ON hotel.id = geo_relations.itemid ",
                    "name": "hotel",
                    "joinType": "INNER JOIN",
                    "idSrc": "hotel.id",
                    "idRel": "geo_relations.itemid"
                }
            }
        },
        "hotel": {
            "fields": {
                "id": {
                    "select": "hotel.`id` as id",
                    "filter": "hotel.`id`"
                },
                "title": {
                    "select": "hotel.`title` as title",
                    "filter": "hotel.`title`"
                },
                "description": {
                    "select": "hotel.`description` as description",
                    "filter": "hotel.`description`"
                },
                "active": {
                    "select": "hotel.`active` as active",
                    "filter": "hotel.`active`"
                },
                "settings": {
                    "select": "hotel.`settings` as settings",
                    "filter": "hotel.`settings`"
                },
                "permalink": {
                    "select": "hotel.`permalink` as permalink",
                    "filter": "hotel.`permalink`"
                },
                "stars": {
                    "select": "hotel.`stars` as stars",
                    "filter": "hotel.`stars`"
                }
            },
            "joins": {
                "types": {
                    "sql": " INNER JOIN types ON types.id = hotel_types.itemid ",
                    "name": "types",
                    "joinType": "INNER JOIN",
                    "idSrc": "types.id",
                    "idRel": "hotel_types.itemid",
                    "intermediate": "hotel_types"
                },
                "hotel_types": {
                    "sql": " INNER JOIN hotel_types ON hotel_types.hotelid = hotel.id ",
                    "name": "hotel_types",
                    "joinType": "INNER JOIN",
                    "idSrc": "hotel.id",
                    "idRel": "hotel_types.hotelid"
                },
                "services": {
                    "sql": " INNER JOIN services ON services.id = hotel_services.itemid ",
                    "name": "services",
                    "joinType": "INNER JOIN",
                    "idSrc": "services.id",
                    "idRel": "hotel_services.itemid",
                    "intermediate": "hotel_services"
                },
                "hotel_services": {
                    "sql": " INNER JOIN hotel_services ON hotel_services.hotelid = hotel.id ",
                    "name": "hotel_services",
                    "joinType": "INNER JOIN",
                    "idSrc": "hotel.id",
                    "idRel": "hotel_services.hotelid"
                },
                "facilities": {
                    "sql": " INNER JOIN facilities ON facilities.id = hotel_facilities.itemid ",
                    "name": "facilities",
                    "joinType": "INNER JOIN",
                    "idSrc": "facilities.id",
                    "idRel": "hotel_facilities.itemid",
                    "intermediate": "hotel_facilities"
                },
                "hotel_facilities": {
                    "sql": " INNER JOIN hotel_facilities ON hotel_facilities.hotelid = hotel.id ",
                    "name": "hotel_facilities",
                    "joinType": "INNER JOIN",
                    "idSrc": "hotel.id",
                    "idRel": "hotel_facilities.hotelid"
                },
                "rooms": {
                    "sql": " INNER JOIN rooms ON rooms.id = rooms_hotel.room_id ",
                    "name": "rooms",
                    "joinType": "INNER JOIN",
                    "idSrc": "rooms.id",
                    "idRel": "rooms_hotel.room_id",
                    "intermediate": "rooms_hotel"
                },
                "rooms_hotel": {
                    "sql": " INNER JOIN rooms_hotel ON rooms_hotel.hotel_id = hotel.id ",
                    "name": "rooms_hotel",
                    "joinType": "INNER JOIN",
                    "idSrc": "hotel.id",
                    "idRel": "rooms_hotel.hotel_id"
                },
                "themeshotels": {
                    "sql": " INNER JOIN themeshotels ON themeshotels.id = hotel_themeshotels.itemid ",
                    "name": "themeshotels",
                    "joinType": "INNER JOIN",
                    "idSrc": "themeshotels.id",
                    "idRel": "hotel_themeshotels.itemid",
                    "intermediate": "hotel_themeshotels"
                },
                "hotel_themeshotels": {
                    "sql": " INNER JOIN hotel_themeshotels ON hotel_themeshotels.hotelid = hotel.id ",
                    "name": "hotel_themeshotels",
                    "joinType": "INNER JOIN",
                    "idSrc": "hotel.id",
                    "idRel": "hotel_themeshotels.hotelid"
                }
            }
        },
        "types": {
            "fields": {
                "id": {
                    "select": "types.`id` as id",
                    "filter": "types.`id`"
                },
                "title": {
                    "select": "types.`title` as title",
                    "filter": "types.`title`"
                },
                "description": {
                    "select": "types.`description` as description",
                    "filter": "types.`description`"
                }
            },
            "joins": {
                "hotel": {
                    "sql": " INNER JOIN hotel ON hotel.id = hotel_types.hotelid ",
                    "name": "hotel",
                    "joinType": "INNER JOIN",
                    "idSrc": "hotel.id",
                    "idRel": "hotel_types.hotelid",
                    "intermediate": "hotel_types"
                },
                "hotel_types": {
                    "sql": " INNER JOIN hotel_types ON hotel_types.itemid = types.id ",
                    "name": "hotel_types",
                    "joinType": "INNER JOIN",
                    "idSrc": "types.id",
                    "idRel": "hotel_types.itemid"
                }
            }
        },
        "services": {
            "fields": {
                "id": {
                    "select": "services.`id` as id",
                    "filter": "services.`id`"
                },
                "title": {
                    "select": "services.`title` as title",
                    "filter": "services.`title`"
                },
                "description": {
                    "select": "services.`description` as description",
                    "filter": "services.`description`"
                }
            },
            "joins": {
                "hotel": {
                    "sql": " INNER JOIN hotel ON hotel.id = hotel_services.hotelid ",
                    "name": "hotel",
                    "joinType": "INNER JOIN",
                    "idSrc": "hotel.id",
                    "idRel": "hotel_services.hotelid",
                    "intermediate": "hotel_services"
                },
                "hotel_services": {
                    "sql": " INNER JOIN hotel_services ON hotel_services.itemid = services.id ",
                    "name": "hotel_services",
                    "joinType": "INNER JOIN",
                    "idSrc": "services.id",
                    "idRel": "hotel_services.itemid"
                }
            }
        },
        "facilities": {
            "fields": {
                "id": {
                    "select": "facilities.`id` as id",
                    "filter": "facilities.`id`"
                },
                "title": {
                    "select": "facilities.`title` as title",
                    "filter": "facilities.`title`"
                },
                "description": {
                    "select": "facilities.`description` as description",
                    "filter": "facilities.`description`"
                }
            },
            "joins": {
                "hotel": {
                    "sql": " INNER JOIN hotel ON hotel.id = hotel_facilities.hotelid ",
                    "name": "hotel",
                    "joinType": "INNER JOIN",
                    "idSrc": "hotel.id",
                    "idRel": "hotel_facilities.hotelid",
                    "intermediate": "hotel_facilities"
                },
                "hotel_facilities": {
                    "sql": " INNER JOIN hotel_facilities ON hotel_facilities.itemid = facilities.id ",
                    "name": "hotel_facilities",
                    "joinType": "INNER JOIN",
                    "idSrc": "facilities.id",
                    "idRel": "hotel_facilities.itemid"
                }
            }
        },
        "rooms": {
            "fields": {
                "id": {
                    "select": "rooms.`id` as id",
                    "filter": "rooms.`id`"
                },
                "title": {
                    "select": "rooms.`title` as title",
                    "filter": "rooms.`title`"
                },
                "description": {
                    "select": "rooms.`description` as description",
                    "filter": "rooms.`description`"
                }
            },
            "joins": {
                "hotel": {
                    "sql": " INNER JOIN hotel ON hotel.id = rooms_hotel.hotel_id ",
                    "name": "hotel",
                    "joinType": "INNER JOIN",
                    "idSrc": "hotel.id",
                    "idRel": "rooms_hotel.hotel_id",
                    "intermediate": "rooms_hotel"
                },
                "rooms_hotel": {
                    "sql": " INNER JOIN rooms_hotel ON rooms_hotel.room_id = rooms.id ",
                    "name": "rooms_hotel",
                    "joinType": "INNER JOIN",
                    "idSrc": "rooms.id",
                    "idRel": "rooms_hotel.room_id"
                }
            }
        }
    }
}